# Fdb version 3
["pdflatex"] 1531062483 "/home/inspion/FamilyBudgetSimulator/documentation/Matematical models/savings.tex" "savings.pdf" "savings" 1531062484
  "/home/inspion/.miktex/texmfs/data/miktex/data/le/pdftex/pdflatex.fmt" 1503348396 735141 a4b48e3bfe34109d465c4cc3d8e299eb ""
  "/home/inspion/.miktex/texmfs/data/pdftex/config/pdftex.map" 1530130373 31247 c98a2f169553a455da9dc38282d9c426 ""
  "/home/inspion/.miktex/texmfs/install/fonts/tfm/public/amsfonts/cmextra/cmex7.tfm" 1233951848 1004 54797486969f23fa377b128694d548df ""
  "/home/inspion/.miktex/texmfs/install/fonts/tfm/public/amsfonts/symbols/msam10.tfm" 1233951854 916 f87d7c45f9c908e672703b83b72241a3 ""
  "/home/inspion/.miktex/texmfs/install/fonts/tfm/public/amsfonts/symbols/msam5.tfm" 1233951854 924 9904cf1d39e9767e7a3622f2a125a565 ""
  "/home/inspion/.miktex/texmfs/install/fonts/tfm/public/amsfonts/symbols/msam7.tfm" 1233951854 928 2dc8d444221b7a635bb58038579b861a ""
  "/home/inspion/.miktex/texmfs/install/fonts/tfm/public/amsfonts/symbols/msbm10.tfm" 1233951854 908 2921f8a10601f252058503cc6570e581 ""
  "/home/inspion/.miktex/texmfs/install/fonts/tfm/public/amsfonts/symbols/msbm5.tfm" 1233951854 940 75ac932a52f80982a9f8ea75d03a34cf ""
  "/home/inspion/.miktex/texmfs/install/fonts/tfm/public/amsfonts/symbols/msbm7.tfm" 1233951854 940 228d6584342e91276bf566bcf9716b83 ""
  "/home/inspion/.miktex/texmfs/install/fonts/type1/public/amsfonts/cm/cmex10.pfb" 1247596667 30251 6afa5cb1d0204815a708a080681d4674 ""
  "/home/inspion/.miktex/texmfs/install/fonts/type1/public/amsfonts/cm/cmmi10.pfb" 1247596667 36299 5f9df58c2139e7edcf37c8fca4bd384d ""
  "/home/inspion/.miktex/texmfs/install/fonts/type1/public/amsfonts/cm/cmmi5.pfb" 1247596667 37912 77d683123f92148345f3fc36a38d9ab1 ""
  "/home/inspion/.miktex/texmfs/install/fonts/type1/public/amsfonts/cm/cmr10.pfb" 1247596667 35752 024fb6c41858982481f6968b5fc26508 ""
  "/home/inspion/.miktex/texmfs/install/fonts/type1/public/amsfonts/cm/cmr5.pfb" 1247596667 31809 8670ca339bf94e56da1fc21c80635e2a ""
  "/home/inspion/.miktex/texmfs/install/fonts/type1/public/amsfonts/cm/cmr7.pfb" 1247596667 32762 224316ccc9ad3ca0423a14971cfa7fc1 ""
  "/home/inspion/.miktex/texmfs/install/fonts/type1/public/amsfonts/cm/cmsy10.pfb" 1247596667 32569 5e5ddc8df908dea60932f3c484a54c0d ""
  "/home/inspion/.miktex/texmfs/install/fonts/type1/public/amsfonts/cm/cmsy5.pfb" 1247596666 32915 7bf7720c61a5b3a7ff25b0964421c9b6 ""
  "/home/inspion/.miktex/texmfs/install/tex/generic/babel/babel.def" 1498741450 60627 65b1d37729beaffee593c370ecc06f67 ""
  "/home/inspion/.miktex/texmfs/install/tex/generic/babel/babel.sty" 1498741450 14313 17461b21efc49ba90378dd30e97c1fca ""
  "/home/inspion/.miktex/texmfs/install/tex/generic/babel/switch.def" 1498741450 12650 fb4c49ceb13037455c02ab8dd235f9ec ""
  "/home/inspion/.miktex/texmfs/install/tex/generic/ifxetex/ifxetex.sty" 1284260789 1458 43ab4710dc82f3edeabecd0d099626b2 ""
  "/home/inspion/.miktex/texmfs/install/tex/generic/oberdiek/ifpdf.sty" 1489934424 1251 d170e11a3246c3392bc7f59595af42cb ""
  "/home/inspion/.miktex/texmfs/install/tex/generic/oberdiek/ifvtex.sty" 1489934424 6797 90b7f83b0ad46826bc16058b1e3d48df ""
  "/home/inspion/.miktex/texmfs/install/tex/latex/amsfonts/amsfonts.sty" 1358197772 5949 3f3fd50a8cc94c3d4cbf4fc66cd3df1c ""
  "/home/inspion/.miktex/texmfs/install/tex/latex/amsfonts/amssymb.sty" 1358197772 13829 94730e64147574077f8ecfea9bb69af4 ""
  "/home/inspion/.miktex/texmfs/install/tex/latex/amsfonts/umsa.fd" 1358197772 961 6518c6525a34feb5e8250ffa91731cff ""
  "/home/inspion/.miktex/texmfs/install/tex/latex/amsfonts/umsb.fd" 1358197772 961 d02606146ba5601b5645f987c92e6193 ""
  "/home/inspion/.miktex/texmfs/install/tex/latex/amsmath/amsbsy.sty" 1492423149 2282 a2145377989deb2b28949654c6949d10 ""
  "/home/inspion/.miktex/texmfs/install/tex/latex/amsmath/amsgen.sty" 1492423150 4296 6ace5df6d594980d7e0784e153322e01 ""
  "/home/inspion/.miktex/texmfs/install/tex/latex/amsmath/amsmath.sty" 1492423150 87150 531c45fe548f500ea5ca00f7384604d0 ""
  "/home/inspion/.miktex/texmfs/install/tex/latex/amsmath/amsopn.sty" 1492423150 4232 9353f4b35a7dd369f466423b56a408b7 ""
  "/home/inspion/.miktex/texmfs/install/tex/latex/amsmath/amstext.sty" 1492423150 2507 56802d009b8c7e481ca81393fc43853c ""
  "/home/inspion/.miktex/texmfs/install/tex/latex/arabi/bblopts.cfg" 1139961600 902 74ca68fb2e6c2b8d370ff0e672de0f31 ""
  "/home/inspion/.miktex/texmfs/install/tex/latex/babel-czech/czech.ldf" 1400664701 16362 153090a6a5c28a0930204622d35c9037 ""
  "/home/inspion/.miktex/texmfs/install/tex/latex/base/article.cls" 1492214938 19821 310da678527a7dfe2a02c88af38079b7 ""
  "/home/inspion/.miktex/texmfs/install/tex/latex/base/inputenc.sty" 1492214946 4732 d63eda807ac82cca2ca8488efd31a966 ""
  "/home/inspion/.miktex/texmfs/install/tex/latex/base/omsenc.dfu" 1492214942 2004 ac51aeac484f08c01026120d62677eca ""
  "/home/inspion/.miktex/texmfs/install/tex/latex/base/ot1enc.dfu" 1492214942 3181 1cb3e9ad01f4a01127b2ffd821bfeec7 ""
  "/home/inspion/.miktex/texmfs/install/tex/latex/base/size10.clo" 1492214938 8292 e897c12e1e886ce77fe26afc5d470886 ""
  "/home/inspion/.miktex/texmfs/install/tex/latex/base/t1enc.dfu" 1492214942 11255 9d97362866549d3d3c994b5f28d1b9b5 ""
  "/home/inspion/.miktex/texmfs/install/tex/latex/base/utf8.def" 1492214942 7784 325a2a09984cb5c4ff230f9867145ad3 ""
  "/home/inspion/.miktex/texmfs/install/tex/latex/geometry-de/geometry.sty" 1301486608 41635 a86876370bb4654dd462eeaf17d4b6ad ""
  "/home/inspion/.miktex/texmfs/install/tex/latex/graphics/keyval.sty" 1498482885 2681 60d894f5308c93940ee38656bb7d3d08 ""
  "/home/inspion/.miktex/texmfs/install/tex/xelatex/xetexconfig/geometry.cfg" 1169251881 322 f4a6234bc28bf70659404393c15d3854 ""
  "/home/inspion/FamilyBudgetSimulator/documentation/Matematical models/savings.tex" 1531062483 950 b567a97d25a5f3c2a27169078cc8507c ""
  "savings.aux" 1531062483 198 52dbbce0d6e84b3249e34246f30819a2 ""
  "savings.tex" 1531062483 950 b567a97d25a5f3c2a27169078cc8507c ""
  (generated)
  "savings.pdf"
  "savings.aux"
  "savings.log"
